{
    "$schema": "https://themost-framework.github.io/themost/models/2018/2/schema.json",
    "@id": "http://schema.org/CopyTimetableEventAction",
    "name": "CopyTimetableEventAction",
    "description": "The act of copying a timetable event.",
    "title": "CopyTimetableEventAction",
    "abstract": false,
    "sealed": false,
    "inherits": "Action",
    "version": "1.0",
    "fields": [
        {
            "name": "timetableEvent",
            "title": "TimetableEvent",
            "type": "TimetableEvent",
            "editable": false,
            "nullable": false
        },
        {
            "name": "result",
            "title": "TimetableEvent",
            "type": "TimetableEvent",
            "editable": false,
            "nullable": true
        },
        {
            "name": "failures",
            "title": "Failures",
            "description": "Information on the events that were not copied.",
            "type": "Note",
            "many": false
        }
    ],
    "privileges": [
        {
            "mask": 15,
            "type": "global"
        },
        {
            "mask": 15,
            "type": "global",
            "account": "Administrators"
        },
        {
            "mask": 15,
            "type": "self",
            "account": "Registrar",
            "filter": "timetableEvent/organizer eq departments()"
        }
    ]
}